{
  "project_info": {
    "project_number": "101892233736",
    "firebase_url": "https://gama-smart.firebaseio.com",
    "project_id": "gama-smart",
    "storage_bucket": "gama-smart.appspot.com"
  },
  "client": [
    {
      "client_info": {
        "mobilesdk_app_id": "1:101892233736:android:233d0f0294ecabe3",
        "android_client_info": {
          "package_name": "com.interview.ionic.starter"
        }
      },
      "oauth_client": [
        {
          "client_id": "101892233736-9std3jrlh6ekmlh2bo0jkc9sumc1fjr9.apps.googleusercontent.com",
          "client_type": 3
        }
      ],
      "api_key": [
        {
          "current_key": "AIzaSyDLtUKhCTX0eFqIWlu1hb_bVGqZlX_-26o"
        }
      ],
      "services": {
        "analytics_service": {
          "status": 1
        },
        "appinvite_service": {
          "status": 1,
          "other_platform_oauth_client": []
        },
        "ads_service": {
          "status": 2
        }
      }
    }
  ],
  "configuration_version": "1"
}